{
    "@class": "com.kony.gen.viz.model.component.KVizButton",
    "DNDConfig": null,
    "__parentReadjusting__": false,
    "_height_": {
        "type": "string",
        "value": "50dp"
    },
    "_left_": {
        "type": "string",
        "value": "51dp"
    },
    "_margin_": [
        6,
        6,
        6,
        6
    ],
    "_padding_": [
        0,
        0,
        0,
        0
    ],
    "_skin_": "s1dcba3d2cb74f5491607ed0e8614004",
    "_text_": "Back Button",
    "_top_": {
        "type": "string",
        "value": "123dp"
    },
    "_width_": {
        "type": "string",
        "value": "260dp"
    },
    "canUpdateUI": true,
    "containerweight": 100,
    "contentalignment": 5,
    "displaytext": true,
    "focusskin": "s90f103bb6614a5cace176ee39642b48",
    "id": "btnBack",
    "ide_onClick": "AS_Button_a9552d7ddbae485cb17234afde246ddf",
    "info": null,
    "iscustomlayout": false,
    "isvisible": true,
    "kuid": "ib68e673a16c40b3995ff45a9300f1c9",
    "name": "kony.ui.Button",
    "parent": "frmSecond",
    "pf": "frmSecond",
    "retaincontentalignment": false,
    "retainflexpositionproperties": false,
    "wType": "Button",
    "zindex": 1
}